1,11992290,San Francisco,California
3,8351899,Houston,Texas
0,8407886,Nueva York,Nueva York
1,8972105,Los cayos,Forida
0,4352178,Filadelfia,Pensilvania
1,3918565,Columbus,Ohio
2,3918565,Springfield,Ohio
1,315988,Detroit,Michigan
1,315988,Warren,Michigan
1,11629703,Capital,Georgia
1,11629703,Dalton,Georgia
0,7608263,Asheville,Carolina del Norte
3,7966852,San Diego,California
2,7966852,Los Angeles,California
1,7966852,Santa Monica,California
2,7966852,San Francisco,California
1,7966852, San Francisco,California
2,7966852, San Francisco,California
0,8828499,San Antonio,Texas
0,6477419,Dallas,Texas
3,11397467,Houston,Texas
3,6620301,Houston,Texas
1,7608263,Asheville,Carolina del Norte
2,7608263,Asheville,Carolina del Norte
2,7608263,Asheville,Carolina del Norte
2,7608263,Asheville,Carolina del Norte
1,7608263,Asheville,Carolina del Norte
2,7608263,Asheville,Carolina del Norte
1,7966852,San Diego,California
1,8407886,Nueva York,Nueva York
2,8407886,Nueva York,Nueva York
2,8407886,Nueva York,Nueva York
2,8407886,Nueva York,Nueva York
1,8407886,Nueva York,Nueva York
2,8972105,Jacksonville,Forida
1,8972105,Miami,Forida
1,8972105,Tampa,Forida
1,8972105,Los cayos,Forida
1,8972105,Miami,Forida
2,8972105,Tampa,Forida

1,8972105,Los cayos,Forida
2,8972105,Tampa,Forida
1,8972105,Tampa,Forida
2,8972105,Los cayos,Forida
1,8972105,Miami,Forida
0,4352178,Filadelfia,Pensilvania
1,4352178,Filadelfia,Pensilvania
1,4352178,Filadelfia,Pensilvania
1,4352178,Filadelfia,Pensilvania
1,4352178,Filadelfia,Pensilvania
2,4352178,Filadelfia,Pensilvania
2,4352178,Filadelfia,Pensilvania
1,4352178,Filadelfia,Pensilvania
3,4352178,Filadelfia,Pensilvania
1,3918565,Columbus,Ohio
1,3918565,Springfield,Ohio
2,3918565,Columbus,Ohio
2,3918565,Springfield,Ohio
2,3918565,Columbus,Ohio
2,3918565,Springfield,Ohio
1,3918565,Columbus,Ohio
1,3918565,Springfield,Ohio
1,3918565,Columbus,Ohio
2,3918565,Springfield,Ohio
2,315988,Detroit,Michigan
2,315988,Warren,Michigan
2,315988,Detroit,Michigan
2,315988,Warren,Michigan
1,315988,Detroit,Michigan
1,315988,Warren,Michigan
1,315988,Detroit,Michigan
2,315988,Warren,Michigan
2,315988,Detroit,Michigan
2,315988,Warren,Michigan
2,11629703,Capital,Georgia
2,11629703,Dalton,Georgia
2,11629703,Capital,Georgia
1,11629703,Dalton,Georgia
1,11629703,Capital,Georgia
1,11629703,Dalton,Georgia
1,11629703,Capital,Georgia
1,11629703,Dalton,Georgia
1,11629703,Capital,Georgia
2,11629703,Dalton,Georgia
3,2349248,La Matanza,Buenos Aires
1,2962696,Malvinas Argentinas,Buenos Aires
1,9532469,Confldvbhabflsvbsfkjvbskjdbvjksfbzvjkbzdfkvjbsdñvvjdksbvkbdaskbvjsdbvuencia,Neuquen
0,8707249,Capital,Mendoza
3,11676920,Capñital,Santiago del Estero
1,6073194,Capital,Cordoba
0,5438955,Olavarria,Buenos Aires
1,3754487,San Miguel,Buenos Aires
3,11026306,Rosario,Santa Fe
1,4403087,Carmen de Areco,Buenos Aires
3,9542656,Confluencia,Neuquen
3,4699458,General Pueyrredon,Buenos Aires
3,6517919,Colon,Cordoba
3,10319768,Santa Lucia,San Juan
3,11971234,Capital,Tucuman
3,9028072,Maipu,Mendoza
0,2230919,La Matanza,Buenos Aires
1,8361367,Dr. Manuel Belgrano,Jujuy
0,4421230,Coronel de Marina L. Rosales,Buenos Aires
0,5382448,Necochea,Buenos Aires
3,3335877,Moron,Buenos Aires
0,11675504,Capital,Santiago del Estero
3,6383455,Capital,Cordoba
1,6026611,Santa Maria,Catamarca
1,7718163,Escalante,Chubut
0,6652889,Marcos Juarez,Cordoba
3,12032756,Capital,Tucuman
1,1129453,Comuna 15,Ciudad Autonoma de Buenos Aires
3,6636623,Juarez Celman,Cordoba
0,11879082,Juan B. Alberdi,Tucuman
1,615963,Comuna 09,Ciudad Autonoma de Buenos Aires
1,7834401,Concordia,Entre Rios
1,8947504,Lavalle,Mendoza
1,790822,Comuna 11,Ciudad Autonoma de Buenos Aires
1,2764694,Lomas de Zamora,Buenos Aires
1,4306142,Berisso,Buenos Aires
0,7843335,Concordia,Entre Rios
0,968633,Comuna 13,Ciudad Autonoma de Buenos Aires
3,11314483,Rosario,Santa Fe
0,3130870,Merlo,Buenos Aires
0,11689838,Capital,Santiago del Estero
1,185464,Comuna 03,Ciudad Autonoma de Buenos Aires
3,10725116,General Lopez,Santa Fe
1,10061215,General Jose dññññññññññññññdjvdjbvjdbvjbdk sbzkdvb e San Martin,Salta
1,506702,Comuna 07,Ciudad Autonoma de Buenos Aires
1,12045471,Capital,Tucuman
1,7413870,General Belgrano,Chaco
3,1420611,Avellaneda,Buenos Aires
1,2959887,Malvinas Argentinas,Buenos Aires
1,3148675,Moreno,Buenos Aires
1,5987664,Capital,Catamarca
1,1212435,Almirante Brown,Buenos Aires
1,5516901,Pilar,Buenos Aires
0,11670188,Capital,Santiago del Estero
0,3305127,Moron,Buenos Aires
1,2986321,Merlo,Buenos Aires
3,2272135,La Matanza,Buenos Aires
1,2309201,La Matanza,Buenos Aires
3,2558208,Lanus,Buenos Aires
3,10632790,Castellanos,Santa Fe
1,4469106,Chacabuco,Buenos Aires
0,9350612,Guarani,Misiones
0,6734348,Punilla,Cordoba
1,2383875,La Matanza,Buenos Aires
0,11660147,Capital,Santiago del Estero
1,6616953,Ischilin,Cordoba
3,11389310,Rosario,Santa Fe
3,1883358,General San Martin,Buenos Aires
1,12116340,Tafi Viejo,Tucuman
3,9007774,Maipu,Mendoza
3,7442750,Libertad,Chaco
1,4504605,Chivilcoy,Buenos Aires
3,10644301,Castellanos,Santa Fe
1,8908465,Las Heras,Mendoza
1,2197370,La Matanza,Buenos Aires
1,1785773,General San Martin,Buenos Aires
2,11490525,San Lorenzo,Santa Fe
1,6657475,Marcos Juarez,Cordoba
1,5042992,La Plata,Buenos Aires
0,3093293,Merlo,Buenos Aires
3,11576312,Alberdi,Santiago del Estero
1,1025688,Comuna 14,Ciudad Autonoma de Buenos Aires
1,5836598,Tapalque,Buenos Aires
0,1011346,Comuna 14,Ciudad Autonoma de Buenos Aires
1,10757529,General Obligado,Santa Fe
1,9706559,Bariloche,Rio negro
1,11168680,Rosario,Santa Fe
0,4978627,La Costa,Buenos Aires
1,9422702,Obera,Misiones
1,11591864,Banda,Santiago del Estero
0,5338991,Mercedes,Buenos Aires
0,746811,Comuna 11,Ciudad Autonoma de Buenos Aires
1,7694356,Escalante,Chubut
3,594572,Comuna 08,Ciudad Autonoma de Buenos Aires
0,2366180,La Matanza,Buenos Aires
3,6452979,Capital,Cordoba
0,11712112,Figueroa,Santiago del Estero
1,1319051,Avellaneda,Buenos Aires
1,8764965,Godoy Cruz,Mendoza
0,5190537,La Plata,Buenos Aires
1,9788265,General Roca,Rio negro
0,9539035,Confluencia,Neuquen
1,5541313,Pilar,Buenos Aires
1,10655052,Constitucion,Santa Fe
1,1953932,Ituzaingo,Buenos Aires
1,4947432,Junin,Buenos Aires
0,11803636,Cruz Alta,Tucuman
1,8403668,Dr. Manuel Belgrano,Jujuy
1,10043597,General Jose de San Martin,Salta
1,2313741,La Matanza,Buenos Aires
3,11931257,Rio Chico,Tucuman
3,8569301,Maraco,La Pampa
1,7577787,San Fernando,Chaco
1,11877548,Juan B. Alberdi,Tucuman
0,7262809,Lavalle,Corrientes
1,3265481,Moron,Buenos Aires
3,7793356,Sarmiento,Chubut
1,8744507,Godoy Cruz,Mendoza
1,4620274,Florentino Ameghino,Buenos Aires
3,3920669,Tres de Febrero,Buenos Aires
0,9216975,Capital,Misiones
3,3983664,Tres de Febrero,Buenos Aires
0,4182020,Bahia Blanca,Buenos Aires
3,7603640,San Fernando,Chaco
1,9601229,Confluencia,Neuquen
3,1452299,Berazategui,Buenos Aires
3,1225765,Almirante Brown,Buenos Aires
0,11246769,Rosario,Santa Fe
1,7568848,San Fernando,Chaco
1,5920229,Zarate,Buenos Aires
3,2070832,Jose C. Paz,Buenos Aires
1,1916931,Hurlingham,Buenos Aires
0,1811969,General San Martin,Buenos Aires
0,11573290,Alberdi,Santiago del Estero
1,2411687,La Matanza,Buenos Aires
1,4177,Comuna 01,Ciudad Autonoma de Buenos Aires
0,1738686,Florencio Varela,Buenos Aires
1,145292,Comuna 02,Ciudad Autonoma de Buenos Aires
1,11923230,Monteros,Tucuman
1,8614790,Capital,La Rioja
3,9752090,General Roca,Rio negro
3,9807170,General Roca,Rio negro
1,10927624,La Capital,Santa Fe
1,6508894,Colon,Cordoba
0,1793096,General San Martin,Buenos Aires
0,7101052,Capital,Corrientes
0,10571676,Caseros,Santa Fe
0,3404652,Quilmes,Buenos Aires
1,7619566,San Fernando,Chaco
1,1557425,Esteban Echeverria,Buenos Aires
1,8758130,Godoy Cruz,Mendoza
2,4302772,Berisso,Buenos Aires
0,134304,Comuna 02,Ciudad Autonoma de Buenos Aires
0,11825243,Cruz Alta,Tucuman
1,9593695,Confluencia,Neuquen
1,8819147,Guaymallen,Mendoza
0,3515924,Quilmes,Buenos Aires
1,5609525,Presidente Peron,Buenos Aires
1,12160838,Rio Grande,Tierra del Fuego
0,5814226,Tandil,Buenos Aires
1,3025643,Merlo,Buenos Aires
1,1125933,Comuna 15,Ciudad Autonoma de Buenos Aires
1,11131685,Rosario,Santa Fe
3,8296161,Pirane,Formosa
1,9064531,San Carlos,Mendoza
3,11720001,General Taboada,Santiago del Estero
1,43094,Comuna 01,Ciudad Autonoma de Buenos Aires
1,5939519,Zarate,Buenos Aires
2,7506652,Quitilipi,Chaco
3,5541580,Pilar,Buenos Aires
1,7905921,Feliciano,Entre Rios
3,7852085,Concordia,Entre Rios
2,2499998,La Matanza,Buenos Aires
0,1286083,Almirante Brown,Buenos Aires
3,8081530,Parana,Entre Rios
1,4598662,Escobar,Buenos Aires
3,10206674,Caucete,San Juan
0,6599972,General San Martin,Cordoba
0,7492514,O'Higgins,Chaco
1,4444273,Coronel Pringles,Buenos Aires
0,10485397,Deseado,Santa Cruz
1,3245386,Moreno,Buenos Aires
1,3160981,Moreno,Buenos Aires
0,5452898,Pehuajo,Buenos Aires
1,7431656,General Guemes,Chaco
3,11085176,Rosario,Santa Fe
1,3380727,Quilmes,Buenos Aires
1,8530885,Conhelo,La Pampa
0,1447138,Berazategui,Buenos Aires
1,920553,Comuna 13,Ciudad Autonoma de Buenos Aires
1,11242047,Rosario,Santa Fe
1,12182642,Ushuaia,Tierra del Fuego
3,11199196,Rosario,Santa Fe
3,7632867,25 de Mayo,Chaco
0,11719999,General Taboada,Santiago del Estero
1,5681787,Salto,Buenos Aires
1,6054627,Calamuchita,Cordoba
0,10364505,General Pedernera,San Luis
1,4495600,Chivilcoy,Buenos Aires
1,7552870,San Fernando,Chaco
1,2805104,Lomas de Zamora,Buenos Aires
3,1736901,Florencio Varela,Buenos Aires
3,10328519,Ullum,San Juan
1,1634738,Ezeiza,Buenos Aires
3,1975711,Ituzaingo,Buenos Aires
1,5824816,Tandil,Buenos Aires
0,1764380,General San Martin,Buenos Aires
1,7184631,Capital,Corrientes
2,10039532,General Jose de San Martin,Salta
0,1701314,Florencio Varela,Buenos Aires
1,3941801,Tres de Febrero,Buenos Aires
1,11223880,Rosario,Santa Fe
1,10410936,La Capital,San Luis
1,1501819,Berazategui,Buenos Aires
1,7887104,Federacion,Entre Rios
0,4106592,Ayacucho,Buenos Aires
0,11750163,Pelegrini,Santiago del Estero
3,3625403,San Isidro,Buenos Aires
1,3988025,Tres de Febrero,Buenos Aires
1,10291601,Rivadavia,San Juan
1,3461746,Quilmes,Buenos Aires
0,6606367,General San Martin,Cordoba
0,10459483,La Capital,San Luis
0,3673225,San Isidro,Buenos Aires
3,246136,Comuna 04,Ciudad Autonoma de Buenos Aires
1,3794148,Tigre,Buenos Aires
1,3845358,Tigre,Buenos Aires
0,1737097,Florencio Varela,Buenos Aires
1,8157040,Victoria,Entre Rios
1,7813429,Colon,Entre Rios
1,9780531,General Roca,Rio negro
1,6166429,Capital,Cordoba
1,3784480,Tigre,Buenos Aires
3,2726082,Lomas de Zamora,Buenos Aires
3,3307143,Moron,Buenos Aires
0,12155681,Yerba Buena,Tucuman
0,11644997,Capital,Santiago del Estero
3,6105826,Capital,Cordoba
0,11883435,La Cocha,Tucuman
3,5694214,San Andres de Giles,Buenos Aires
1,6430242,Capital,Cordoba
1,7558809,San Fernando,Chaco
1,10901106,La Capital,Santa Fe
3,10612533,Castellanos,Santa Fe
1,6792089,Rio Cuarto,Cordoba
0,9446763,Obera,Misiones
0,5996707,Capital,Catamarca
1,8038339,Parana,Entre Rios
0,5349069,Monte Hermoso,Buenos Aires
0,11731500,Loreto,Santiago del Estero
0,2147021,La Matanza,Buenos Aires
1,4983748,La Costa,Buenos Aires
0,10050363,General Jose de San Martin,Salta
1,1245772,Almirante Brown,Buenos Aires
3,7372304,Comandante Fernandez,Chaco
3,8727974,General Alvear,Mendoza
1,4556544,Escobar,Buenos Aires
1,9202574,Cainguas,Misiones
1,8963625,Lujan de Cuyo,Mendoza
3,11933167,Rio Chico,Tucuman
1,7593793,San Fernando,Chaco
1,10056714,General Jose de San Martin,Salta
3,6074355,Capital,Cordoba
1,8327979,El Carmen,Jujuy
1,7254693,Ituzaingo,Corrientes
0,5612901,Presidente Peron,Buenos Aires
1,10276040,Rawson,San Juan
3,5979787,Capital,Catamarca
0,6629517,Juarez Celman,Cordoba
0,4572274,Escobar,Buenos Aires
0,7309525,Saladas,Corrientes
2,4222379,Bahia Blanca,Buenos Aires
1,1464029,Berazategui,Buenos Aires
1,4736243,General Pueyrredon,Buenos Aires
1,3586889,San Fernando,Buenos Aires
1,384365,Comuna 05,Ciudad Autonoma de Buenos Aires
2,10257112,Rawson,San Juan
1,6643587,Marcos Juarez,Cordoba
0,5061707,La Plata,Buenos Aires
0,11102614,Rosario,Santa Fe
0,2086823,La Matanza,Buenos Aires
1,7947468,Gualeguaychu,Entre Rios
3,2745165,Lomas de Zamora,Buenos Aires
3,7152453,Capital,Corrientes
3,6737569,Punilla,Cordoba
3,6286228,Capital,Cordoba
3,8432426,Ledesma,Jujuy
1,9517440,Confluencia,Neuquen
1,7532018,San Fernando,Chaco
1,4692554,General Pueyrredon,Buenos Aires
3,4729595,General Pueyrredon,Buenos Aires
1,11863183,Famalla,Tucuman
0,8557402,Maraco,La Pampa
1,5436220,Olavarria,Buenos Aires
1,8394532,Dr. Manuel Belgrano,Jujuy
0,3964895,Tres de Febrero,Buenos Aires
3,3134119,Moreno,Buenos Aires
1,7673716,Escalante,Chubut
1,4379488,Canuelas,Buenos Aires
3,11382717,Rosario,Santa Fe
3,4709745,General Pueyrredon,Buenos Aires
3,4719865,General Pueyrredon,Buenos Aires
3,3052315,Merlo,Buenos Aires
3,10029422,General Guemes,Salta
3,12194649,Ushuaia,Tierra del Fuego
1,10402201,Junin,San Luis
1,8652554,Coronel Felipe Varela,La Rioja
3,10822192,La Capital,Santa Fe
1,8009148,Parana,Entre Rios
3,3160332,Moreno,Buenos Aires
3,9513813,Confluencia,Neuquen
0,3866369,Tigre,Buenos Aires
1,8026515,Parana,Entre Rios
3,2576420,Lanus,Buenos Aires
0,8350298,Dr. Manuel Belgrano,Jujuy
1,5531611,Pilar,Buenos Aires
3,6162464,Capital,Cordoba
0,5899187,Villa Gesell,Buenos Aires
1,10822296,La Capital,Santa Fe
0,3508041,Quilmes,Buenos Aires
1,9176173,Tupungato,Mendoza
1,10457101,La Capital,San Luis
1,3154674,Moreno,Buenos Aires
0,7854853,Concordia,Entre Rios
1,5996610,Capital,Catamarca
3,5077393,La Plata,Buenos Aires
0,9613880,Huiliches,Neuquen
3,7894536,Federacion,Entre Rios
0,7128608,Capital,Corrientes
1,11654509,Capital,Santiago del Estero
1,12184872,Ushuaia,Tierra del Fuego
0,6804622,Rio Cuarto,Cordoba
2,8620278,Capital,La Rioja
1,11440450,San Javier,Santa Fe
0,4068026,Vicente Lopez,Buenos Aires
1,2825235,Lomas de Zamora,Buenos Aires
0,11020686,9 de Julio,Santa Fe
1,5778557,San Vicente,Buenos Aires
1,11468855,San Jeronimo,Santa Fe
3,8001741,Parana,Entre Rios
2,9093156,San Martin,Mendoza
0,5775758,San Vicente,Buenos Aires
2,2044526,Jose C. Paz,Buenos Aires
1,10155541,San Carlos,Salta
1,2328745,La Matanza,Buenos Aires
1,3614460,San Isidro,Buenos Aires
2,2504743,La Matanza,Buenos Aires
1,4055071,Vicente Lopez,Buenos Aires
1,7057628,Union,Cordoba
1,375029,Comuna 05,Ciudad Autonoma de Buenos Aires
0,3199059,Moreno,Buenos Aires
2,9149096,San Rafael,Mendoza
1,9115008,San Rafael,Mendoza
2,9839572,Pilnaniyeu,Rio negro
1,11715279,General Taboada,Santiago del Estero
1,2307165,La Matanza,Buenos Aires
1,3764162,San Miguel,Buenos Aires
3,4658249,General La Madrid,Buenos Aires
0,2328049,La Matanza,Buenos Aires
1,9461961,San Ignacio,Misiones
1,287559,Comuna 04,Ciudad Autonoma de Buenos Aires
3,11812575,Cruz Alta,Tucuman
1,2365209,La Matanza,Buenos Aires
2,4536211,Ensenada,Buenos Aires
1,1811125,General San Martin,Buenos Aires
0,6007742,Capital,Catamarca
1,11551795,San Martin,Santa Fe
0,9352745,Guarani,Misiones
3,7035759,Tercero Arriba,Cordoba
1,9545412,Confluencia,Neuquen
1,10169686,Capital,San Juan
3,2671651,Lanus,Buenos Aires
0,8392081,Dr. Manuel Belgrano,Jujuy
1,5528550,Pilar,Buenos Aires
1,8349522,Dr. Manuel Belgrano,Jujuy
3,9345518,Guarani,Misiones
1,6180830,Capital,Cordoba
3,9083654,San Martin,Mendoza
3,2521708,La Matanza,Buenos Aires
1,475196,Comuna 07,Ciudad Autonoma de Buenos Aires
1,9886249,Capital,Salta
1,6220023,Capital,Cordoba
1,7434914,General Guemes,Chaco
3,11794175,Burruyacu,Tucuman
3,417712,Comuna 06,Ciudad Autonoma de Buenos Aires
1,7088143,Bella Vista,Corrientes
1,2656211,Lanus,Buenos Aires
1,7102475,Capital,Corrientes
3,6117066,Capital,Cordoba
0,8948680,Lavalle,Mendoza
1,1259979,Almirante Brown,Buenos Aires
1,11956766,Capital,Tucuman
3,6152234,Capital,Cordoba
1,6242103,Capital,Cordoba
0,2779771,Lomas de Zamora,Buenos Aires
3,6568363,General Roca,Cordoba
1,6623704,Juarez Celman,Cordoba
0,1188425,Almirante Brown,Buenos Aires
1,2963525,Malvinas Argentinas,Buenos Aires
1,7512833,San Fernando,Chaco
3,2578187,Lanus,Buenos Aires
3,5145161,La Plata,Buenos Aires
3,6108923,Capital,Cordoba
1,4234447,Bahia Blanca,Buenos Aires
3,5848175,Trenque Lauquen,Buenos Aires
0,5317507,Marcos Paz,Buenos Aires
0,1705703,Florencio Varela,Buenos Aires
1,11712277,Figueroa,Santiago del Estero
3,72424,Comuna 01,Ciudad Autonoma de Buenos Aires
3,9109669,San Rafael,Mendoza
0,1682280,Florencio Varela,Buenos Aires
1,1084536,Comuna 15,Ciudad Autonoma de Buenos Aires
3,8512116,Capital,La Pampa
3,3374748,Quilmes,Buenos Aires
3,8763068,Godoy Cruz,Mendoza
1,9498233,Confluencia,Neuquen
3,3234008,Moreno,Buenos Aires
1,7327499,San Roque,Corrientes
0,167922,Comuna 03,Ciudad Autonoma de Buenos Aires
3,3072825,Merlo,Buenos Aires
3,553536,Comuna 08,Ciudad Autonoma de Buenos Aires
1,3762736,San Miguel,Buenos Aires
3,2872672,Lomas de Zamora,Buenos Aires
3,8713706,Capital,Mendoza
0,7354142,Almirante Brown,Chaco
3,7603392,San Fernando,Chaco
3,1974160,Ituzaingo,Buenos Aires
3,10801916,Iriondo,Santa Fe
0,8880825,Junin,Mendoza
1,5546270,Pilar,Buenos Aires
1,3319382,Moron,Buenos Aires
3,4980539,La Costa,Buenos Aires
0,10059730,General Jose de San Martin,Salta
1,8630704,Capital,La Rioja
3,9369608,Iguazu,Misiones
0,12006256,Capital,Tucuman
2,854954,Comuna 12,Ciudad Autonoma de Buenos Aires
3,3462243,Quilmes,Buenos Aires
1,8468390,San Pedro,Jujuy
1,4066930,Vicente Lopez,Buenos Aires
0,1346716,Avellaneda,Buenos Aires
0,6318708,Capital,Cordoba
1,3758528,San Miguel,Buenos Aires
1,7367637,Comandante Fernandez,Chaco
1,6580706,General San Martin,Cordoba
1,4443719,Coronel Pringles,Buenos Aires
1,5039941,La Plata,Buenos Aires
2,8434570,Ledesma,Jujuy
0,5963335,Capayan,Catamarca
3,1177666,Almirante Brown,Buenos Aires
1,6352296,Capital,Cordoba
0,6266257,Capital,Cordoba
0,9983757,Capital,Salta
0,9330629,El Dorado,Misiones
3,9261935,Capital,Misiones
1,11050081,Rosario,Santa Fe
0,7819871,Concordia,Entre Rios
1,5285758,Lujan,Buenos Aires
3,3043059,Merlo,Buenos Aires
1,2762512,Lomas de Zamora,Buenos Aires
3,1592738,Esteban Echeverria,Buenos Aires
0,10366159,General Pedernera,San Luis
3,9034933,Malargue,Mendoza
3,11526598,San Lorenzo,Santa Fe
1,1002034,Comuna 14,Ciudad Autonoma de Buenos Aires
1,6802821,Rio Cuarto,Cordoba
1,6683832,Presidente Roque Saenz Pena,Cordoba
1,12032199,Capital,Tucuman
1,2548103,La Matanza,Buenos Aires
0,9569742,Confluencia,Neuquen
3,7035390,Tercero Arriba,Cordoba
1,9260982,Capital,Misiones
1,1235572,Almirante Brown,Buenos Aires
3,248410,Comuna 04,Ciudad Autonoma de Buenos Aires
1,2101140,La Matanza,Buenos Aires
0,9227934,Capital,Misiones
1,4537506,Ensenada,Buenos Aires
0,6048857,Calamuchita,Cordoba
1,1239462,Almirante Brown,Buenos Aires
3,11159713,Rosario,Santa Fe
1,8944610,Las Heras,Mendoza
1,8334775,El Carmen,Jujuy
0,1173994,Almirante Brown,Buenos Aires
3,2620811,Lanus,Buenos Aires
1,9329723,El Dorado,Misiones
1,11206930,Rosario,Santa Fe
1,2497237,La Matanza,Buenos Aires
3,11905216,Lules,Tucuman
1,2812099,Lomas de Zamora,Buenos Aires
3,5351142,Navarro,Buenos Aires
3,4631979,General Alvarado,Buenos Aires
1,8181618,Formosa,Formosa
1,1127280,Comuna 15,Ciudad Autonoma de Buenos Aires
2,4362733,Campana,Buenos Aires
0,9698554,Bariloche,Rio negro
3,1749810,Florencio Varela,Buenos Aires
3,10209446,Caucete,San Juan
0,4446903,Coronel Pringles,Buenos Aires
0,4855092,General Pueyrredon,Buenos Aires
3,4389765,Carlos Casares,Buenos Aires
0,3333516,Moron,Buenos Aires
3,7471942,Mayor Luis J. Fontana,Chaco
3,9514952,Confluencia,Neuquen
1,4424745,Coronel de Marina L. Rosales,Buenos Aires
0,9614976,Huiliches,Neuquen
1,9078673,San Martin,Mendoza
0,6039108,Valle Viejo,Catamarca
0,6938304,San Justo,Cordoba
3,10904921,La Capital,Santa Fe
0,8692548,Capital,Mendoza
3,9255156,Capital,Misiones
1,8185149,Formosa,Formosa
1,11179649,Rosario,Santa Fe
1,5316695,Marcos Paz,Buenos Aires
1,1876299,General San Martin,Buenos Aires
3,11444196,San Javier,Santa Fe
1,10551528,Belgrano,Santa Fe
1,4000473,Vicente Lopez,Buenos Aires
1,5953233,Andalgala,Catamarca
3,11915542,Monteros,Tucuman
1,2047472,Jose C. Paz,Buenos Aires
0,5669027,Saladillo,Buenos Aires
0,10882095,La Capital,Santa Fe
3,8581376,Realico,La Pampa
1,3507842,Quilmes,Buenos Aires
1,10725145,General Lopez,Santa Fe
0,3847540,Tigre,Buenos Aires
1,11613971,Banda,Santiago del Estero
1,6506388,Colon,Cordoba
1,3989686,Vicente Lopez,Buenos Aires
3,5357637,Necochea,Buenos Aires
1,7563677,San Fernando,Chaco
1,9973770,Capital,Salta
0,2753928,Lomas de Zamora,Buenos Aires
3,9788967,General Roca,Rio negro
0,7377552,Comandante Fernandez,Chaco
1,1041674,Comuna 14,Ciudad Autonoma de Buenos Aires
3,1036130,Comuna 14,Ciudad Autonoma de Buenos Aires
1,11383282,Rosario,Santa Fe
2,3287224,Moron,Buenos Aires
1,8068687,Parana,Entre Rios
3,771280,Comuna 11,Ciudad Autonoma de Buenos Aires
1,10957699,La Capital,Santa Fe
1,7428200,General Guemes,Chaco
3,1934130,Hurlingham,Buenos Aires
1,9651113,Zapala,Neuquen
1,597351,Comuna 08,Ciudad Autonoma de Buenos Aires
3,5061299,La Plata,Buenos Aires
3,5909733,Villarino,Buenos Aires
1,5680088,Salto,Buenos Aires
0,7450106,Libertador General San Martin,Chaco
1,7732428,Futaleufu,Chubut
3,6173272,Capital,Cordoba
1,2682369,Lanus,Buenos Aires
1,2976376,Malvinas Argentinas,Buenos Aires
1,329004,Comuna 05,Ciudad Autonoma de Buenos Aires
0,10241448,9 de julio,San Juan
1,5621039,Puan,Buenos Aires
0,8500148,Capital,La Pampa
0,81688,Comuna 01,Ciudad Autonoma de Buenos Aires
1,10414084,La Capital,San Luis
0,11869622,Graneros,Tucuman
3,6621401,Juarez Celman,Cordoba
2,4306102,Berisso,Buenos Aires
0,10617227,Castellanos,Santa Fe
1,4119226,Azul,Buenos Aires
1,5524042,Pilar,Buenos Aires
1,9138483,San Rafael,Mendoza
1,906319,Comuna 13,Ciudad Autonoma de Buenos Aires
0,7011426,Tercero Arriba,Cordoba
3,67317,Comuna 01,Ciudad Autonoma de Buenos Aires
1,10905912,La Capital,Santa Fe
1,471874,Comuna 07,Ciudad Autonoma de Buenos Aires
1,4248509,Balcarce,Buenos Aires
0,1738538,Florencio Varela,Buenos Aires
3,6452452,Capital,Cordoba
0,11471397,San Jeronimo,Santa Fe
1,995302,Comuna 14,Ciudad Autonoma de Buenos Aires
3,9557733,Confluencia,Neuquen
1,4522016,Dolores,Buenos Aires
1,263836,Comuna 04,Ciudad Autonoma de Buenos Aires
1,4444679,Coronel Pringles,Buenos Aires
3,10159074,Albardon,San Juan
1,914992,Comuna 13,Ciudad Autonoma de Buenos Aires
1,6074067,Capital,Cordoba
0,7952153,Gualeguaychu,Entre Rios
3,4104696,Ayacucho,Buenos Aires
3,5719375,San Nicolas,Buenos Aires
1,4927311,Guamini,Buenos Aires
1,5925096,Zarate,Buenos Aires
3,1990403,Ituzaingo,Buenos Aires
3,10243144,Pocito,San Juan
3,5017346,La Plata,Buenos Aires
0,5953770,Andalgala,Catamarca
3,6181789,Capital,Cordoba
1,6087014,Capital,Cordoba
3,6995355,Santa Maria,Cordoba
1,10267830,Rawson,San Juan
1,8444230,Palpala,Jujuy
3,8170934,Villaguay,Entre Rios
3,8677014,General Ocampo,La Rioja
1,10377334,General Pedernera,San Luis
0,11886467,Leales,Tucuman
0,10421498,La Capital,San Luis
1,4642035,General Arenales,Buenos Aires
0,2038402,Jose C. Paz,Buenos Aires
1,5533153,Pilar,Buenos Aires
1,10220248,Chimbas,San Juan
0,11584834,Banda,Santiago del Estero
1,5159221,La Plata,Buenos Aires
3,5400920,9 de Julio,Buenos Aires
1,8878849,Junin,Mendoza
1,10437679,La Capital,San Luis
2,11907722,Lules,Tucuman
1,9331934,El Dorado,Misiones
1,9079324,San Martin,Mendoza
1,2490780,La Matanza,Buenos Aires
3,10761382,General Obligado,Santa Fe
1,11451811,San Jeronimo,Santa Fe
1,5058981,La Plata,Buenos Aires
1,1923050,Hurlingham,Buenos Aires
3,6752171,Rio Cuarto,Cordoba
1,1713274,Florencio Varela,Buenos Aires
0,6975780,Santa Maria,Cordoba
1,11080526,Rosario,Santa Fe
1,8620775,Capital,La Rioja
1,2842678,Lomas de Zamora,Buenos Aires
1,977875,Comuna 14,Ciudad Autonoma de Buenos Aires
1,4169668,Bahia Blanca,Buenos Aires
1,3544596,San Fernando,Buenos Aires
3,1316373,Avellaneda,Buenos Aires
1,9191467,Apostoles,Misiones
1,11116573,Rosario,Santa Fe
1,2702216,Lanus,Buenos Aires
1,7333237,Santo Tome,Corrientes
1,4157970,Bahia Blanca,Buenos Aires
1,11944075,Rio Chico,Tucuman
1,1967781,Ituzaingo,Buenos Aires
1,2615303,Lanus,Buenos Aires
3,8803718,Guaymallen,Mendoza
0,7886791,Federacion,Entre Rios
3,6497134,Colon,Cordoba
0,7607509,San Fernando,Chaco
1,2040230,Jose C. Paz,Buenos Aires
1,8845735,Guaymallen,Mendoza
3,9371438,Iguazu,Misiones
1,4625976,General Alvarado,Buenos Aires
1,729840,Comuna 11,Ciudad Autonoma de Buenos Aires
3,6711568,Punilla,Cordoba
1,8039691,Parana,Entre Rios
0,12118740,Tafi Viejo,Tucuman
1,4085222,Vicente Lopez,Buenos Aires
1,8423729,Ledesma,Jujuy
3,9226351,Capital,Misiones
0,10842218,La Capital,Santa Fe
0,11834907,Cruz Alta,Tucuman
3,7432463,General Guemes,Chaco
3,9793503,General Roca,Rio negro
0,2375597,La Matanza,Buenos Aires
3,4126506,Azul,Buenos Aires
1,7177858,Capital,Corrientes
3,1145436,Comuna 15,Ciudad Autonoma de Buenos Aires
1,4517709,Daireaux,Buenos Aires
3,131208,Comuna 02,Ciudad Autonoma de Buenos Aires
1,292633,Comuna 04,Ciudad Autonoma de Buenos Aires
1,5362404,Necochea,Buenos Aires
0,11659764,Capital,Santiago del Estero
3,5152306,La Plata,Buenos Aires
3,710389,Comuna 10,Ciudad Autonoma de Buenos Aires
1,6028454,Santa Maria,Catamarca
1,1806456,General San Martin,Buenos Aires
2,5129210,La Plata,Buenos Aires
1,3102274,Merlo,Buenos Aires
1,1563647,Esteban Echeverria,Buenos Aires
0,9051199,Rivadavia,Mendoza
0,11312070,Rosario,Santa Fe
0,8172696,Bermejo,Formosa
3,8840143,Guaymallen,Mendoza
0,6436835,Capital,Cordoba
1,3240874,Moreno,Buenos Aires
1,5347375,Monte,Buenos Aires
0,9241134,Capital,Misiones
1,4213109,Bahia Blanca,Buenos Aires
0,868143,Comuna 12,Ciudad Autonoma de Buenos Aires
3,5087168,La Plata,Buenos Aires
1,7595421,San Fernando,Chaco
1,7474394,Mayor Luis J. Fontana,Chaco
0,11803248,Cruz Alta,Tucuman
1,6486309,Colon,Cordoba
3,850104,Comuna 12,Ciudad Autonoma de Buenos Aires
1,9515277,Confluencia,Neuquen
1,8756188,Godoy Cruz,Mendoza
3,1908672,Hurlingham,Buenos Aires
0,10664246,Constitucion,Santa Fe
3,8258100,Patino,Formosa
3,11346222,Rosario,Santa Fe
1,8620748,Capital,La Rioja
3,7448264,Libertador General San Martin,Chaco
0,6508040,Colon,Cordoba
3,3129666,Merlo,Buenos Aires
1,1493204,Berazategui,Buenos Aires
1,1708140,Florencio Varela,Buenos Aires
3,11437040,San Cristobal,Santa Fe
3,782012,Comuna 11,Ciudad Autonoma de Buenos Aires
3,8660075,Chilecito,La Rioja
1,2581408,Lanus,Buenos Aires
3,10655204,Constitucion,Santa Fe
1,1582652,Esteban Echeverria,Buenos Aires
1,11837128,Cruz Alta,Tucuman
0,8525915,Capital,La Pampa
1,9351985,Guarani,Misiones
0,2481978,La Matanza,Buenos Aires
0,1637929,Ezeiza,Buenos Aires
1,814590,Comuna 12,Ciudad Autonoma de Buenos Aires
0,7041536,Totoral,Cordoba
0,9360665,Guarani,Misiones
3,7761022,Rawson,Chubut
1,3862236,Tigre,Buenos Aires
1,4312185,Bolivar,Buenos Aires
1,9796279,General Roca,Rio negro
0,8005758,Parana,Entre Rios
1,6866408,Rio Segundo,Cordoba
1,2507809,La Matanza,Buenos Aires
1,5609184,Presidente Peron,Buenos Aires
1,304344,Comuna 04,Ciudad Autonoma de Buenos Aires
0,10334703,Zonda,San Juan
1,3742303,San Miguel,Buenos Aires
3,1995621,Ituzaingo,Buenos Aires
2,5771041,San Pedro,Buenos Aires
2,3168199,Moreno,Buenos Aires
1,8366526,Dr. Manuel Belgrano,Jujuy
3,4934586,Junin,Buenos Aires
1,1026587,Comuna 14,Ciudad Autonoma de Buenos Aires
0,10425720,La Capital,San Luis
1,7068196,Union,Cordoba
1,8079096,Parana,Entre Rios
1,5349170,Monte Hermoso,Buenos Aires
1,10491122,Deseado,Santa Cruz
1,943002,Comuna 13,Ciudad Autonoma de Buenos Aires
1,8779403,Godoy Cruz,Mendoza
1,12003313,Capital,Tucuman
3,12156902,Yerba Buena,Tucuman
0,6743788,Punilla,Cordoba
0,8245641,Matacos,Formosa
1,3721984,San Miguel,Buenos Aires
0,1750788,Florencio Varela,Buenos Aires
1,1806298,General San Martin,Buenos Aires
1,1564308,Esteban Echeverria,Buenos Aires
3,4061050,Vicente Lopez,Buenos Aires
3,11073534,Rosario,Santa Fe
1,4985793,La Costa,Buenos Aires
1,4085703,Vicente Lopez,Buenos Aires
3,1009739,Comuna 14,Ciudad Autonoma de Buenos Aires
1,11222229,Rosario,Santa Fe
2,10225962,Chimbas,San Juan
1,11297444,Rosario,Santa Fe
1,3126122,Merlo,Buenos Aires
3,378032,Comuna 05,Ciudad Autonoma de Buenos Aires
1,7628544,Sargento Cabral,Chaco
3,9684312,Avellaneda,Rio negro
1,825260,Comuna 12,Ciudad Autonoma de Buenos Aires
0,10974310,La Capital,Santa Fe
1,9325378,El Dorado,Misiones
1,9214257,Candelaria,Misiones
3,4960185,Junin,Buenos Aires
1,4366007,Campana,Buenos Aires
1,10131271,Rivadavia,Salta
3,10443142,La Capital,San Luis
0,7893048,Federacion,Entre Rios
1,5076612,La Plata,Buenos Aires
3,4845558,General Pueyrredon,Buenos Aires
0,5283307,Lujan,Buenos Aires
3,2900230,Malvinas Argentinas,Buenos Aires
3,10841697,La Capital,Santa Fe
3,4623308,General Alvarado,Buenos Aires
3,5098882,La Plata,Buenos Aires
1,8154440,Victoria,Entre Rios
1,11091540,Rosario,Santa Fe
0,12060847,Capital,Tucuman
1,10313369,Santa Lucia,San Juan
1,4916332,General Villegas,Buenos Aires
1,6180135,Capital,Cordoba
1,2179510,La Matanza,Buenos Aires
1,11196489,Rosario,Santa Fe
0,9376093,Iguazu,Misiones
3,9604341,Confluencia,Neuquen
1,5624818,Punta Indio,Buenos Aires
3,1527733,Esteban Echeverria,Buenos Aires
1,10254719,Pocito,San Juan
3,2340875,La Matanza,Buenos Aires
0,12017945,Capital,Tucuman
2,54445432,Los Cayos,Florida
1,646482,Chelsea,London
1,5543235,exrdcftcfvydbjdbfjnbdfjkbdfjkbfjnbfd,fibfsibsibbfnibsinbsinbfsinjbfsinbsnibfsnibsisbijsbibbsbisfbibs
0,474738294,dvkjdsabvvihsabiuasbvuasnvuiariubvibauiiurbaiuviub,uvbriearubvuirbuiruirnuibubnrubvnurniu